<svg xmlns="http://www.w3.org/2000/svg" width="50.755" height="15.076" viewBox="0 0 50.755 15.076">
  <path id="arrow-right" d="M20.948,15.058H-19.808a.822.822,0,0,0-.822.822v3.834a.822.822,0,0,0,.822.822H20.948v3.153a1.643,1.643,0,0,0,2.8,1.162l5.891-5.891a1.643,1.643,0,0,0,0-2.324l-5.891-5.891a1.643,1.643,0,0,0-2.8,1.162Z" transform="translate(20.63 -10.258)" fill="#fff"/>
</svg>
