<svg xmlns="http://www.w3.org/2000/svg" width="20" height="22.343" viewBox="0 0 20 22.343">
  <g id="user" transform="translate(0)">
    <g id="Сгруппировать_69" data-name="Сгруппировать 69" transform="translate(4.2)">
      <g id="Сгруппировать_68" data-name="Сгруппировать 68" transform="translate(0)">
        <path id="Контур_96" data-name="Контур 96" d="M116.592,0a5.8,5.8,0,1,0,5.8,5.8A5.817,5.817,0,0,0,116.592,0Z" transform="translate(-110.791)" fill="#7ce3e0"/>
      </g>
    </g>
    <g id="Сгруппировать_71" data-name="Сгруппировать 71" transform="translate(0 12.017)">
      <g id="Сгруппировать_70" data-name="Сгруппировать 70">
        <path id="Контур_97" data-name="Контур 97" d="M44.122,252.061A5.408,5.408,0,0,0,43.539,251a7.211,7.211,0,0,0-4.991-3.141,1.068,1.068,0,0,0-.735.177,6.184,6.184,0,0,1-7.3,0,.951.951,0,0,0-.735-.177A7.158,7.158,0,0,0,24.793,251a6.235,6.235,0,0,0-.583,1.064.539.539,0,0,0,.025.481,10.106,10.106,0,0,0,.684,1.013,9.625,9.625,0,0,0,1.165,1.317,15.191,15.191,0,0,0,1.165,1.013,11.552,11.552,0,0,0,13.781,0,11.138,11.138,0,0,0,1.165-1.013,11.7,11.7,0,0,0,1.165-1.317,8.882,8.882,0,0,0,.684-1.013A.432.432,0,0,0,44.122,252.061Z" transform="translate(-24.165 -247.841)" fill="#7ce3e0"/>
      </g>
    </g>
  </g>
</svg>
