<svg xmlns="http://www.w3.org/2000/svg" width="775.247" height="245.101" viewBox="0 0 775.247 245.101">
  <path id="first_line" d="M944,12566.031s-418.3,297.025-676,70.394,71.947-144.221,71.947-144.221" transform="translate(-169.042 -12477.035)" fill="none" stroke="#ff884b" stroke-linejoin="round" stroke-width="1" stroke-dasharray="10"/>
</svg>

<svg xmlns="http://www.w3.org/2000/svg" width="719.558" height="448.823" viewBox="0 0 719.558 448.823">
  <path id="second_line" d="M1016,12578.057s451.955,260.97,656.267,27.47-157.427-350.777-157.427-350.777" transform="translate(-1015.75 -12254.273)" fill="none" stroke="#ff884b" stroke-linejoin="round" stroke-width="1" stroke-dasharray="10"/>
</svg>

<svg xmlns="http://www.w3.org/2000/svg" width="956.837" height="504.943" viewBox="0 0 956.837 504.943">
  <path id="third_line" d="M944,12586.634s36.467,390.223-429.944,488.271-525.231-282.426-525.231-282.426" transform="translate(11.669 -12586.587)" fill="none" stroke="#ff884b" stroke-linejoin="round" stroke-width="1" stroke-dasharray="10"/>
</svg>

<svg xmlns="http://www.w3.org/2000/svg" width="943.856" height="523.887" viewBox="0 0 943.856 523.887">
  <path id="fourth_line" d="M995.805,12552.3s79.252,581.9,523.656,518.506,418.926-169.967,418.926-169.967" transform="translate(-995.31 -12552.229)" fill="none" stroke="#ff884b" stroke-linejoin="round" stroke-width="1" stroke-dasharray="10"/>
</svg>
